65
65
11110111101100111100101000000100111111000101101111011001111101101
11001101011110111111111101111111111101001110111101110111110001011
11111111011111101111001011101110100111111011111011111111111001110
11110111011111110111011000111110010111110110100111110111010111101
10111001100101011111100101000001011100011111101111111011110110101
11101111111101001010101110110001011111110101101100110111011110100
11111011111111001101111111110111111101101111111011000111111111111
11010101111111111011000010011100111010100110010001101011111110110
11011110101111110110001111111000100010011011111111101111111011101
11110011111000110010101111110101110111111111111111111111011111110
11110110110100111100111011101110101011010001111111110010110101100
10101101110010110110101001111111111011001010111110111011111110111
10001011111111110111101111011101110110100101111110001101111011111
01001111001101111110010111110101001111111100110111110111110110001
00111010111110111011110111011111101011011011101110101010101111101
10101011011101111000101111011010111011101110111110000010111111111
11111110110100101111101111100111111110001111101111110011111111111
11011110111110101100000011111111011100111110111110101011111100110
11110101011101001011111111111011011101111111011111101111101111111
01111111011111110110100110011011000100000111111100011100011101111
01111111111111111101110011011011011111011101110100111110111100000
01100110101101111111110101110101111010111011111110101010010111111
10101111111010111110111111001100110111111111111110011001111110110
11101111111000111111111000010101110110110111001101111010111111100
11011101011010111111111011011111101110001101011000111010011011011
11011110100011110100011111101100110010110001101011111111110011110
01101110011111101111110010000100111101110001100011010110111101010
10101010011110011111110101011111010110011011101111001110101101101
10111101111110001010011110111010111010110011001101111111110111111
01001111100100111111111011010111110111111101011100111110011111101
10111001011110101111110111111001111111111010010110110010110101111
01001111011111100111111111111100101110111001111111110111101101110
11111101101101111010110011011011111010111111111001100110001100101
11101101000101111101011111011011001101110110100011111101100111111
11011111100101111011010100101001111101010010110110001111011011101
10111101111000111100101110101111110111110110111111101110110100101
10111110010111011111010010101111000101111110101110011101100111111
01110111101011101111111010111100111100111101011000000111100010111
01101100111110101101111101011111111111110011011101111110111101100
11111111101011010111111110111110111001001100111100111111111110111
01110011000011001111110111011111011111001100001010111111101001101
00111101111001111111100111011111000011101110111100111100111101110
01110111111110111110011111110101101001011101111000111011101001110
10001011111111010011111001101011000110010001011011100011111101101
10011011111110111110011111111111111101101101101011001110111111111
11111111101110001110111100111111100011111011000010110100000011100
11101111010111111010101111111101111011110111111111110001010110110
11110111011111110111011111111111010111101011111111111101111111101
11111010110111011111100111011111110111111010100010111011100111110
11111111011111111010011100100101110000111111011110111100100010011
01110101111010000111101111011011111101110110100111110110111111111
00111111110111111011011111001111111011110111111010111111110100111
11111100010111111110011111110010010111110111111101101000111011101
11110011111111111110000111010011111100011110110111111101111110101
11101111111110110111100110001101100111110001110001111111011101111
10101001110001001111110111011101111010011111101011011101110001111
10010101011111110101111101111011111101011101111110011101111111010
00111110011101101000000011111111111111110111111111110111101111101
11011010000110110101101000111011111001110111111111110111111100110
00111110010110101011111100011101111101010111011110111111011001111
11111001111101101110000100100111111111100100111011111011101011011
11111111000110011101111111011011011011111011010101111101011111100
00100111110110111111111111010101011111110111101100111111011100100
10010011111110010111110110011111100100111101011100110110111111000
01111110111011111101101011110111111101001110111110111011011111111
71 109 101 93 79 45 26 4
